"LightmappedGeneric"
{
	"$vertexcolor" "1"
	"$vertexalpha" "1"
	// Original shader: DecalBaseTimesLightmapAlphaBlend
	"$translucent" 1
	"$basetexture" "Decals/decalIndustrialnumber03a"
	"$decal" 1
	"$decalscale" 1
	"%keywords" "debris"
}
