"VertexLitGeneric"
{
	// Original shader: VertexLitTexture
	"$basetexture" "Models/props_wasteland/old/prisonkitchen01"
	"$basealphaenvmapmask" 1
//	"$envmap" "Environment Maps/kitchen"
	"$envmap" "env_cubemap"
	"$envmaptint" "[.35 .33 .35]"
//	"$envmapsaturation" ".4"
	"$envmapcontrast" "1"
	"$envmapmode" "1"
}
