// Choreo version 1
actor "odell"
{
  channel "look at"
  {
    event lookat "Player"
    {
      time 0.046666 6.239999
      ramp 0.85 0.87 0.63
      param "Player"
    }
  }
  channel "audio"
  {
    event speak "warmer"
    {
      time 0.246666 6.167211
      ramp 1.00 1.00 1.00
      param "vo\borealis\Odell_17.wav"
    }
  }
}

