"VertexLitGeneric"
{
	// Original shader: VertexLitTexture
	"$basetexture" "Models/props_c17/metal_streetprops001a"
	"$envmap" "env_cubemap"
	"$basealphaenvmapmask" 1
	"$surfaceprop" "metal"
	"$envmaptint" "[.1 .1 .1]"
}
