"VertexLitGeneric"
{
	"$surfaceprop" "default"
	"$basetexture" "Models/vortigaunt/vortigaunt_sheet"
	"$bumpmap" "Models/vortigaunt/vortigaunt_normal"

	// Blend between color textures
	"$detail" "Models/Vortigaunt/vortigaunt_blue"
	"$detailblendmode" "3"
	"$detailblendfactor" "0.0"
	"$detailScale" "1.0"

	// Emissive Scroll Pass
	"$emissiveBlendEnabled"     "1" // Enables effect
	"$emissiveBlendTexture"     "models/vortigaunt/vortigaunt_illum"
	"$emissiveBlendBaseTexture" "Models/Vortigaunt/vortigaunt_blue"
	"$emissiveBlendFlowTexture" "models/vortigaunt/vortigaunt_flow"
	"$emissiveBlendTint"        "[1 1 1]"
	"$emissiveBlendScrollVector" "[0.11 0.124]"
	"$time" "0"
	"Proxies"
	{
		"VortEmissive"
		{
		}
		"MaterialModify"
		{
		}
		"CurrentTime"
		{
			"resultVar" "$time"
		}
	}
}
