"VertexLitGeneric"
{
	"$basetexture" "Models/props_combine/old//Combine_Citadel001_alt"
	"$surfaceprop" "metal"
	"$envmap" "env_cubemap"
	"$basealphaenvmapmask" 1
	"$envmaptint" "[ .125 .125 .125]"
}
