"VertexLitGeneric"
{
	"$baseTexture" "models/props_borealis/pipesystem001c"
	"$surfaceprop" "metal"
	"$envmap" "env_cubemap"
 	"$basealphaenvmapmask" 1
	"$envmaptint" "[ .75 .75 .75]"
	
	"$leakparticle"	"steam_jet_50_steam"
}