"VertexLitGeneric"
{
	"$baseTexture" "Models/Zombie_Poison/torso2_CL"
	//"$bumpmap" "models/zombie_poison/torso_cl_normal"
	//"$normalmapalphaenvmapmask" 1
	//"$envmap" "env_cubemap"
	//"$envmapcontrast" 1
}
