///////////////////////////////////////////////////////////
// Tracker scheme resource file
//
// sections:
//		Colors			- all the colors used by the scheme
//		BaseSettings	- contains settings for app to use to draw controls
//		Fonts			- list of all the fonts used by app
//		Borders			- description of all the borders
//
///////////////////////////////////////////////////////////
Scheme
{
	//////////////////////// COLORS ///////////////////////////
	// color details
	// this is a list of all the colors used by the scheme
	Colors
	{
		// orig gray vgui base colors
		"White"				"255 255 255 255"
		"OffWhite"			"221 221 221 255"
		"DullWhite"			"190 190 190 255"
		"Orange"			"255 155 0 255"
		"TransparentBlack"	"0 0 0 128"
		"Black"				"0 0 0 255"

		"Blank"				"0 0 0 0"
		
		"SteamLightGreen"			"157 194 80 255"
		"AchievementsLightGrey"		"76 88 68 255" //79 79 79 255
		"AchievementsDarkGrey"		"62 70 55 255" // 55 55 55 255
		"AchievementsInactiveFG"	"130 130 130 255" //
		
		// hl1 base color scheme
		"ControlBG"					"76 88 68 255"		
		"BrightControlText"			"196 181 80 255" 	
		"BorderBright"				"136 145 128 255"	
		"BorderDark"				"40 46 34 255"		
		"BaseText"					"216 222 211 255"	
		"ListBG"					"62 70 55 255"		
		"BorderSelection"			"0 0 0 255"			
		"DimBaseText"				"160 170 149 255"	
		"SelectionBG"				"149 136 49 255"	
		"SelectionBG2"				"40 46 34 255"
		"DisabledText1"				"117 128 111 255"	
		"DisabledText2"				"40 46 34 255"		
		"ControlDarkBG"				"90 106 80 255"
		"TitleText"					"255 255 255 255"
		"TitleDimText"				"136 145 128 255"
		"TitleBG"					"76 88 68 0"
		"TitleDimBG"				"76 88 68 0"
	}

	///////////////////// BASE SETTINGS ////////////////////////
	//
	// default settings for all panels
	// controls use these to determine their settings
	BaseSettings
	{
		// vgui_controls color specifications
		Border.Bright					"BorderBright"	// the lit side of a control
		Border.Dark						"BorderDark"		// the dark/unlit side of a control
		Border.Selection				"BorderSelection"			// the additional border color for displaying the default/selected button

		Button.TextColor					"ControlText"
		Button.BgColor						"ControlBG"
		Button.ArmedTextColor				"White"
		Button.ArmedBgColor					"Blank"				[$WIN32]
		Button.ArmedBgColor					"190 115 0 255"		[$X360]
		Button.DepressedTextColor			"White"
		Button.DepressedBgColor				"Blank"
		Button.FocusBorderColor				"TransparentBlack"

		CheckButton.TextColor				"BaseText"
		CheckButton.SelectedTextColor		"BrightControlText"
		CheckButton.BgColor					"ListBG"
		CheckButton.Border1  				"Border.Dark" 		// the left checkbutton border
		CheckButton.Border2  				"Border.Bright"		// the right checkbutton border
		CheckButton.Check					"BrightControlText"	// color of the check itself
		CheckButton.HighlightFgColor		"White"			
		CheckButton.ArmedBgColor			"Blank"
		CheckButton.DepressedBgColor		"Blank"
		CheckButton.DisabledBgColor	   		"Blank"
				
		ComboBoxButton.ArrowColor			"DimBaseText"
		ComboBoxButton.ArmedArrowColor		"White"
		ComboBoxButton.BgColor				"ListBG"
		ComboBoxButton.DisabledBgColor		"ListBG"
		
		// icon used in title
//		FrameSystemButton.Icon				""
//		FrameSystemButton.DisabledIcon		""
//		FrameSystemButton.Icon				"resource/icon_hlicon1"
//		FrameSystemButton.DisabledIcon		"resource/icon_hlicon2"
		FrameSystemButton.Icon				"resource/icon_steam"
		FrameSystemButton.DisabledIcon		"resource/icon_steam_disabled"

		Frame.TitleTextInsetX				16
		Frame.ClientInsetX					8
		Frame.ClientInsetY					6
		Frame.BgColor						"ControlBG"	[$WIN32]
		Frame.BgColor						"80 80 80 192"		[$X360]
		Frame.OutOfFocusBgColor				"ControlBG"	[$WIN32]
		Frame.OutOfFocusBgColor				"80 80 80 192"		[$X360]
		Frame.FocusTransitionEffectTime		"0"							// time it takes for a window to fade in/out on focus/out of focus
		Frame.TransitionEffectTime			"0"				[$WIN32]	// time it takes for a window to fade in/out on open/close
		Frame.TransitionEffectTime			"0"				[$X360]		// time it takes for a window to fade in/out on open/close
		Frame.AutoSnapRange					"0"
		FrameGrip.Color1					"BorderBright"
		FrameGrip.Color2					"BorderSelection"
		FrameTitleButton.FgColor			"BorderBright"
		FrameTitleButton.BgColor			"ControlBG"
		FrameTitleButton.DisabledFgColor	"TitleDimText"
		FrameTitleButton.DisabledBgColor	"TitleDimBG"
		FrameSystemButton.FgColor			"TitleBG"
		FrameSystemButton.BgColor			"TitleBG"
		FrameTitleBar.Font					"UiBold"		[$WIN32]
		FrameTitleBar.Font					"DefaultLarge"	[$WIN32]
		FrameTitleBar.TextColor				"TitleText"
		FrameTitleBar.BgColor				"TitleBG"
		FrameTitleBar.DisabledTextColor		"TitleDimText"
		FrameTitleBar.DisabledBgColor		"TitleBG"

		GraphPanel.FgColor				"White"
		GraphPanel.BgColor				"TransparentBlack"

		Label.TextDullColor				"DimBaseText"
		Label.TextColor					"ControlText"
		Label.TextBrightColor			"BrightBaseText"
		Label.SelectedTextColor			"BrightControlText"
		Label.BgColor					"Blank"
		Label.DisabledFgColor1			"DisabledText1"
		Label.DisabledFgColor2			"DisabledText2"

		ListPanel.TextColor					"BaseText"
		ListPanel.TextBgColor				"Blank"
		ListPanel.BgColor					"ListBG"
		ListPanel.SelectedTextColor			"BrightBaseText"
		ListPanel.SelectedBgColor			"SelectionBG"
		ListPanel.SelectedOutOfFocusBgColor	"SelectionBG2"
		ListPanel.EmptyListInfoTextColor	"DimBaseText"

		Menu.TextColor					"DimBaseText"
		Menu.BgColor					"ControlBG"
		Menu.ArmedTextColor				"BrightBaseText"
		Menu.ArmedBgColor				"SelectionBG"
		Menu.TextInset					"6"

		Panel.FgColor					"BorderSelection"
		Panel.BgColor					"Blank"

		ProgressBar.FgColor				"BrightControlText"
		ProgressBar.BgColor				"ListBG"

		PropertySheet.TextColor					"OffWhite"
		PropertySheet.SelectedTextColor			"White"
		PropertySheet.TransitionEffectTime		"0"	// time to change from one tab to another

		RadioButton.TextColor			"OffWhite"
		RadioButton.SelectedTextColor	"White"

		RichText.TextColor				"ControlText"
		RichText.BgColor				"ListBG"
		RichText.SelectedTextColor		"SelectedText"
		RichText.SelectedBgColor		"SelectionBG"

		ScrollBar.Wide					17

		ScrollBarButton.FgColor				"ControlText"
		ScrollBarButton.BgColor				"ControlBG"
		ScrollBarButton.ArmedFgColor		"BrightBaseText"
		ScrollBarButton.ArmedBgColor		"ControlBG"
		ScrollBarButton.DepressedFgColor	"BrightBaseText"
		ScrollBarButton.DepressedBgColor	"ControlDarkBG"

		ScrollBarSlider.Inset				1
		ScrollBarSlider.FgColor				"ControlDarkBG"			// nob color
		ScrollBarSlider.BgColor				"ControlBG"	// slider background color

		SectionedListPanel.HeaderTextColor	"BrightControlText"
		SectionedListPanel.HeaderBgColor	"Blank"
		SectionedListPanel.DividerColor		"SelectionBG2"
		SectionedListPanel.TextColor		"DullWhite"
		SectionedListPanel.BrightTextColor	"White"
		SectionedListPanel.BgColor			"TransparentBlack"
		SectionedListPanel.SelectedTextColor			"White"
		SectionedListPanel.SelectedBgColor				"SelectionBG"
		SectionedListPanel.OutOfFocusSelectedTextColor	"White"
		SectionedListPanel.OutOfFocusSelectedBgColor	"SelectionBG2"

		Slider.NobColor				"ControlDarkBG"
		Slider.TextColor			"127 140 127 255"
		Slider.TrackColor			"31 31 31 255"
		Slider.DisabledTextColor1	"117 117 117 255"
		Slider.DisabledTextColor2	"30 30 30 255"

		TextEntry.TextColor			"ControlText"
		TextEntry.BgColor			"ListBG"
		TextEntry.CursorColor		"Label.CursoColor"
		TextEntry.DisabledTextColor	"DimBaseText"
		TextEntry.DisabledBgColor	"ControlBG"
		TextEntry.SelectedTextColor	"SelectedText"
		TextEntry.SelectedBgColor	"SelectionBG"
		TextEntry.OutOfFocusSelectedBgColor	"SelectionBG2"
		TextEntry.FocusEdgeColor	"SelectionBG"

		ToggleButton.SelectedTextColor	"White"

		Tooltip.TextColor			"0 0 0 196"
		Tooltip.BgColor				"BrightControlText"

		TreeView.BgColor			"TransparentBlack"

		WizardSubPanel.BgColor		"ControlBG"

		// scheme-specific colors
		MainMenu.TextColor			"White"				[$WIN32]
		MainMenu.TextColor			"200 200 200 255"	[$X360]
		MainMenu.ArmedTextColor		"200 200 200 255"	[$WIN32]
		MainMenu.ArmedTextColor		"White"				[$X360]
		MainMenu.DepressedTextColor	"192 186 80 255"
		MainMenu.MenuItemHeight		"30"				[$WIN32]
		MainMenu.MenuItemHeight			"22"				[$X360]
		MainMenu.MenuItemHeight_hidef	"32"				[$X360]
		MainMenu.Inset				"32"
		MainMenu.Backdrop			"0 0 0 156"

		Console.TextColor			"OffWhite"
		Console.DevTextColor		"White"

		NewGame.TextColor			"White"
		NewGame.FillColor			"ListBG"
		NewGame.SelectionColor		"BrightControlText"			[$WIN32]
		NewGame.SelectionColor		"0 0 0 255"			[$X360]
		NewGame.DisabledColor		"62 70 55 196"

		MessageDialog.MatchmakingBG			"46 43 42 255"	[$X360]
		MessageDialog.MatchmakingBGBlack			"22 22 22 255"	[$X360]
		
		MatchmakingMenuItemTitleColor			"200 184 151 255"	[$X360]
		MatchmakingMenuItemDescriptionColor		"200 184 151 255"	[$X360]

		"QuickListBGDeselected"		"AchievementsDarkGrey"
	 	"QuickListBGSelected"           "AchievementsLightGrey"
	}

	//////////////////////// BITMAP FONT FILES /////////////////////////////
	//
	// Bitmap Fonts are ****VERY*** expensive static memory resources so they are purposely sparse
	BitmapFontFiles
	{
		// UI buttons, custom font, (256x64)
		"Buttons"		"materials/vgui/fonts/buttons_32.vbf"
	}

	//////////////////////// FONTS /////////////////////////////
	//
	// describes all the fonts
	Fonts
	{
		// fonts are used in order that they are listed
		// fonts listed later in the order will only be used if they fulfill a range not already filled
		// if a font fails to load then the subsequent fonts will replace
		// fonts are used in order that they are listed
		"DebugFixed"
		{
			"1"
			{
				"name"		"Courier New"
				"tall"		"10"
				"weight"	"500"
				"antialias" "1"
			}
		}
		// fonts are used in order that they are listed
		"DebugFixedSmall"
		{
			"1"
			{
				"name"		"Courier New"
				"tall"		"7"
				"weight"	"500"
				"antialias" "1"
			}
		}
		"DefaultFixedOutline"
		{
			"1"
			{
				"name"		 "Lucida Console" [$WINDOWS]
				"name"		 "Lucida Console" [$X360]
				"name"		 "Verdana" [$POSIX]
				"tall"		"14" [$LINUX]
				"tall"		"11" [$OSX]
				"tall"		 "10"
				"tall_lodef" "15"
				"tall_hidef" "20"
				"weight"	 "0"
				"outline"	 "1"
			}
		}
		"Default"
		{
			"1"
			{
				"name"		"Tahoma" [!$POSIX]
				"name"		"Verdana" [$POSIX]
				"tall"		"16"
				"weight"	"500"
			}
		}
		"DefaultBold"
		{
			"1"
			{
				"name"		"Tahoma" [!$POSIX]
				"name"		"Verdana Bold" [$POSIX]
				"tall"		"16"
				"weight"	"1000"
			}
		}
		"DefaultUnderline"
		{
			"1"
			{
				"name"		"Tahoma" [!$POSIX]
				"name"		"Verdana" [$POSIX]
				"tall"		"16"
				"weight"	"500"
				"underline" "1"
			}
		}
		"DefaultSmall"
		{
			"1"
			{
				"name"		"Tahoma" [!$POSIX]
				"name"		"Verdana" [$POSIX]
				"tall"		"12" [!$POSIX]
				"tall"		"13" [$POSIX]
				"weight"	"0"
			}
		}
		"DefaultSmallDropShadow"
		{
			"1"
			{
				"name"		"Tahoma" [!$POSIX]
				"name"		"Verdana" [$POSIX]
				"tall"		"13"
				"weight"	"0"
				"dropshadow" "1"
			}
		}
		"DefaultVerySmall"
		{
			"1"
			{
				"name"		"Tahoma" [!$POSIX]
				"name"		"Verdana" [$POSIX]
				"tall"		"12"
				"weight"	"0"
			}
		}

		"DefaultLarge"
		{
			"1"
			{
				"name"		"Tahoma" [!$POSIX]
				"name"		"Verdana" [$POSIX]
				"tall"		"18"
				"weight"	"0"
			}
		}
		"UiBold"
		{
			"1"	[$WIN32]
			{
				"name"		"Tahoma" [!$POSIX]
				"name"		"Verdana" [$POSIX]
				"tall"		"12"
				"weight"	"1000"
			}
			"1"	[$X360]
			{
				"name"		"Tahoma"
				"tall"		"24"
				"weight"	"2000"
				"outline"	"1"
			}
		}
		"ChapterTitle"	[$X360]
		{
			"1"
			{
				"name"			"Tahoma"
				"tall"			"20"
				"tall_hidef"	"28"
				"weight"		"2000"
				"outline"		"1"
			}
		}
		"ChapterTitleBlur"	[$X360]
		{
			"1"
			{
				"name"			"Tahoma"
				"tall"			"20"
				"tall_hidef"	"28"
				"weight"		"2000"
				"blur"			"3"
				"blur_hidef"	"5"
			}
		}
		"MenuLarge"
		{
			"1"	[$POSIX]
			{
				"name"		"Helvetica Bold"
				"tall"		"20"
				"antialias" "1"
			}
			"1"	[$WIN32]
			{
				"name"		"Verdana" 
				"tall"		"16" 
				"weight"	"600"
				"antialias" "1"
			}
			"1"	[$X360]
			{
				"name"		"Verdana"
				"tall"			"14"
				"tall_hidef"	"20"
				"weight"	"1200"
				"antialias" "1"
				"outline" "1"
			}
		}
		"AchievementTitleFont"
		{
			"1"
			{
				"name"		"Verdana"
				"tall"		"20"
				"weight"	"1200"
				"antialias" "1"
				"outline" "1"
			}
		}
		
		"AchievementTitleFontSmaller"
		{
			"1"
			{
				"name"		"Verdana"
				"tall"		"18"
				"weight"	"1200"
				"antialias" "1"
				//"outline" "1"
			}
		}
		
		
		"AchievementDescriptionFont"
		{
			"1"
			{
				"name"		"Verdana"
				"tall"		"15"
				"weight"	"1200"
				"antialias" "1"
				"outline" "1"
				"yres"		"0 480"
			}
			"2"
			{
				"name"		"Verdana"
				"tall"		"20"
				"weight"	"1200"
				"antialias" "1"
				"outline" "1"
				"yres"	 "481 10000"
			}
		}
		
		GameUIButtons
		{
			"1"	[$X360]
			{
				"bitmap"	"1"
				"name"		"Buttons"
				"scalex"	"0.63"
				"scaley"	"0.63"
				"scalex_hidef"	"1.0"
				"scaley_hidef"	"1.0"
				"scalex_lodef"	"0.75"
				"scaley_lodef"	"0.75"
			}
		}
		"ConsoleText"
		{
			"1"
			{
				"name"		 "Lucida Console" [$WINDOWS]
				"name"		 "Lucida Console" [$X360]
				"name"		 "Verdana" [$POSIX]
				"tall"		"11" [$OSX]
				"tall"		"14" [$LINUX]
				"tall"		"10"
				"weight"	"500"
			}
		}

		// this is the symbol font
		"Marlett"
		{
			"1"
			{
				"name"		"Marlett"
				"tall"		"14"
				"weight"	"0"
				"symbol"	"1"
			}
		}

		"Trebuchet24"
		{
			"1"
			{
				"name"		"Trebuchet MS"
				"tall"		"24"
				"weight"	"900"
			}
		}

		"Trebuchet20"
		{
			"1"
			{
				"name"		"Trebuchet MS"
				"tall"		"20"
				"weight"	"900"
			}
		}

		"Trebuchet18"
		{
			"1"
			{
				"name"		"Trebuchet MS"
				"tall"		"18"
				"weight"	"900"
			}
		}

		// HUD numbers
		// We use multiple fonts to 'pulse' them in the HUD, hence the need for many of near size
		"HUDNumber"
		{
			"1"
			{
				"name"		"Trebuchet MS"
				"tall"		"40"
				"weight"	"900"
			}
		}
		"HUDNumber1"
		{
			"1"
			{
				"name"		"Trebuchet MS"
				"tall"		"41"
				"weight"	"900"
			}
		}
		"HUDNumber2"
		{
			"1"
			{
				"name"		"Trebuchet MS"
				"tall"		"42"
				"weight"	"900"
			}
		}
		"HUDNumber3"
		{
			"1"
			{
				"name"		"Trebuchet MS"
				"tall"		"43"
				"weight"	"900"
			}
		}
		"HUDNumber4"
		{
			"1"
			{
				"name"		"Trebuchet MS"
				"tall"		"44"
				"weight"	"900"
			}
		}
		"HUDNumber5"
		{
			"1"
			{
				"name"		"Trebuchet MS"
				"tall"		"45"
				"weight"	"900"
			}
		}
		"DefaultFixed"
		{
			"1"
			{
				"name"		 "Lucida Console" [$WINDOWS]
				"name"		 "Lucida Console" [$X360]
				"name"		 "Verdana" [$POSIX]
				"tall"		"11" [$POSIX]
				"tall"		"10"
				"weight"	"0"
			}
//			"1"
//			{
//				"name"		"FixedSys"
//				"tall"		"20"
//				"weight"	"0"
//			}
		}

		"DefaultFixedDropShadow"
		{
			"1"
			{
				"name"		 "Lucida Console" [$WINDOWS]
				"name"		 "Lucida Console" [$X360]
				"name"		 "Verdana" [$OSX]
				"name"		 "Courier" [$LINUX]
				"tall"		"14" [$LINUX]
				"tall"		"11" [$POSIX]
				"tall"		"10"
				"weight"	"0"
				"dropshadow" "1"
			}
//			"1"
//			{
//				"name"		"FixedSys"
//				"tall"		"20"
//				"weight"	"0"
//			}
		}

		"CloseCaption_Normal"
		{
			"1"
			{
				"name"		"Tahoma" [!$POSIX]
				"name"		"Verdana" [$POSIX]
				"tall"		"16"
				"weight"	"500"
			}
		}
		"CloseCaption_Italic"
		{
			"1"
			{
				"name"		"Tahoma" [!$OSX]
				"name"		"Verdana Italic" [$OSX]
				"tall"		"16"
				"weight"	"500"
				"italic"	"1"
			}
		}
		"CloseCaption_Bold"
		{
			"1"
			{
				"name"		"Tahoma" [!$POSIX]
				"name"		"Verdana Bold" [$POSIX]
				"tall"		"16"
				"weight"	"900"
			}
		}
		"CloseCaption_BoldItalic"
		{
			"1"
			{
				"name"		"Tahoma" [!$POSIX]
				"name"		"Verdana Bold Italic" [$POSIX]
				"tall"		"16"
				"weight"	"900"
				"italic"	"1"
			}
		}

		TitleFont
		{
			"1"
			{
				"name"		"HalfLife2"
				"tall"		"72"
				"weight"	"400"
				"antialias"	"1"
				"custom"	"1"
			}
		}

		TitleFont2
		{
			"1"
			{
				"name"		"HalfLife2"
				"tall"		"120"
				"weight"	"400"
				"antialias"	"1"
				"custom"	"1"
			}
		}

		AppchooserGameTitleFont	[$X360]
		{
			"1"
			{
				"name"			"Trebuchet MS"
				"tall"			"16"
				"tall_hidef"	"24"
				"weight"		"900"
				"antialias"		"1"
			}
		}

		AppchooserGameTitleFontBlur	[$X360]
		{
			"1"
			{
				"name"			"Trebuchet MS"
				"tall"			"16"
				"tall_hidef"	"24"
				"weight"		"900"
				"blur"			"3"
				"blur_hidef"	"5"
				"antialias"		"1"
			}
		}
		
		StatsTitle	[$WIN32]
		{
			"1"
			{
				"name"		"Arial" [!$POSIX]
				"name"		"Verdana Bold" [$POSIX]
				"weight"		"2000"
				"tall"			"20"
				"antialias"		"1"
			}
		}
		
		StatsText	[$WIN32]
		{
			"1"
			{
				"name"		"Arial" [!$POSIX]
				"name"		"Verdana Bold" [$POSIX]
				"weight"		"2000"
				"tall"			"18"
				"antialias"		"1"
			}
		}
		
		AchievementItemTitle	[$WIN32]
		{
			"1"
			{
				"name"		"Arial" [!$POSIX]
				"name"		"Verdana Bold" [$POSIX]
				"weight"		"1500"
				"tall"			"16" [!$POSIX]
				"tall"			"18" [$POSIX]
				"antialias"		"1"
			}
		}

		AchievementItemDate	[$WIN32]
		{
			"1"
			{
				"name"		"Arial" [!$POSIX]
				"name"		"Verdana Bold" [$POSIX]
				"weight"		"1500"
				"tall"			"16"
				"antialias"		"1"
			}
		}

		
		StatsPageText
		{
			"1"
			{
				"name"		"Arial" [!$POSIX]
				"name"		"Verdana Bold" [$POSIX]
				"weight"		"1500"
				"tall"			"14" [!$POSIX]
				"tall"			"16" [$POSIX]
				"antialias"		"1"
			}
		}
		
		AchievementItemTitleLarge	[$WIN32]
		{
			"1"
			{
				"name"		"Arial" [!$POSIX]
				"name"		"Verdana Bold" [$POSIX]
				"weight"		"1500"
				"tall"			"18" [!$POSIX]
				"tall"			"19" [$POSIX]
				"antialias"		"1"
			}
		}
		
		AchievementItemDescription	[$WIN32]
		{
			"1"
			{
				"name"		"Arial" [!$POSIX]
				"name"		"Verdana" [$POSIX]
				"weight"		"1000"
				"tall"			"14" [!$POSIX]
				"tall"			"15" [$POSIX]
				"antialias"		"1"
			}
		}

		
		"ServerBrowserTitle"
		{
			"1"
			{
				"name"		"Tahoma" [!$POSIX]
				"name"		"Verdana" [$POSIX]
				"tall"		"35"
				"tall_lodef"	"40"
				"weight"	"500"
				"additive"	"0"
				"antialias" "1"
			}
		}

		"ServerBrowserSmall"
		{
			"1"
			{
				"name"		"Tahoma"
				"tall"		"16"
				"weight"	"0"
				"range"		"0x0000 0x017F" //	Basic Latin, Latin-1 Supplement, Latin Extended-A
				"yres"	"480 599"
			}
			"2"
			{
				"name"		"Tahoma"
				"tall"		"16"
				"weight"	"0"
				"range"		"0x0000 0x017F" //	Basic Latin, Latin-1 Supplement, Latin Extended-A
				"yres"	"600 767"
			}
			"3"
			{
				"name"		"Tahoma"
				"tall"		"16"
				"weight"	"0"
				"range"		"0x0000 0x017F" //	Basic Latin, Latin-1 Supplement, Latin Extended-A
				"yres"	"768 1023"
				"antialias"	"1"
			}
			"4"
			{
				"name"		"Tahoma"
				"tall"		"19"
				"weight"	"0"
				"range"		"0x0000 0x017F" //	Basic Latin, Latin-1 Supplement, Latin Extended-A
				"yres"	"1024 1199"
				"antialias"	"1"
			}
			"5"
			{
				"name"		"Tahoma"
				"tall"		"19"
				"weight"	"0"
				"range"		"0x0000 0x017F" //	Basic Latin, Latin-1 Supplement, Latin Extended-A
				"yres"	"1200 6000"
				"antialias"	"1"
			}
		}
	
	}

	//
	//////////////////// BORDERS //////////////////////////////
	//
	// describes all the border types
	Borders
	{
		BaseBorder		DepressedBorder
		ButtonBorder	RaisedBorder
		ComboBoxBorder	DepressedBorder
		MenuBorder		RaisedBorder
		BrowserBorder	DepressedBorder
		PropertySheetBorder	RaisedBorder

		FrameBorder
		{
			// rounded corners for frames
			"backgroundtype" "0"
			"inset" "0 0 1 1"
			Left
			{
				"1"
				{
					"color" "Border.Bright" //"Border.Dark"
					"offset" "0 1"
				}
			}

			Right
			{
				"1"
				{
					"color" "Border.Dark" //"Border.Dark"
					"offset" "0 0"
				}
			}

			Top
			{
				"1"
				{
					"color" "Border.Bright" //"Border.Dark"
					"offset" "0 1"
				}
			}

			Bottom
			{
				"1"
				{
					"color" "Border.Dark" //"Border.Dark"
					"offset" "0 0"
				}
			}
		}

		DepressedBorder
		{
			"inset" "0 0 1 1"
			Left
			{
				"1"
				{
					"color" "Border.Dark"
					"offset" "0 1"
				}
			}

			Right
			{
				"1"
				{
					"color" "Border.Bright"
					"offset" "1 0"
				}
			}

			Top
			{
				"1"
				{
					"color" "Border.Dark"
					"offset" "0 0"
				}
			}

			Bottom
			{
				"1"
				{
					"color" "Border.Bright"
					"offset" "0 0"
				}
			}
		}
		RaisedBorder
		{
			"inset" "0 0 1 1"
			Left
			{
				"1"
				{
					"color" "Border.Bright"
					"offset" "0 1"
				}
			}

			Right
			{
				"1"
				{
					"color" "Border.Dark"
					"offset" "0 0"
				}
			}

			Top
			{
				"1"
				{
					"color" "Border.Bright"
					"offset" "0 1"
				}
			}

			Bottom
			{
				"1"
				{
					"color" "Border.Dark"
					"offset" "0 0"
				}
			}
		}
		
		TitleButtonBorder
		{
			"backgroundtype" "0"
			"inset" "0 0 1 1"
			Left
			{
				"1"
				{
					"color" "BorderBright"
					"offset" "0 1"
				}
			}

			Right
			{
				"1"
				{
					"color" "BorderDark"
					"offset" "1 0"
				}
			}

			Top
			{
				"4"
				{
					"color" "BorderBright"
					"offset" "0 0"
				}
			}

			Bottom
			{
				"1"
				{
					"color" "BorderDark"
					"offset" "0 0"
				}
			}
		}

		TitleButtonDisabledBorder
		{
			"backgroundtype" "0"
			"inset" "0 0 1 1"
			Left
			{
				"1"
				{
					"color" "BgColor"
					"offset" "0 1"
				}
			}

			Right
			{
				"1"
				{
					"color" "BgColor"
					"offset" "1 0"
				}
			}
			Top
			{
				"1"
				{
					"color" "BgColor"
					"offset" "0 0"
				}
			}

			Bottom
			{
				"1"
				{
					"color" "BgColor"
					"offset" "0 0"
				}
			}
		}

		TitleButtonDepressedBorder
		{
			"backgroundtype" "0"
			"inset" "1 1 1 1"
			Left
			{
				"1"
				{
					"color" "BorderDark"
					"offset" "0 1"
				}
			}

			Right
			{
				"1"
				{
					"color" "BorderBright"
					"offset" "1 0"
				}
			}

			Top
			{
				"1"
				{
					"color" "BorderDark"
					"offset" "0 0"
				}
			}

			Bottom
			{
				"1"
				{
					"color" "BorderBright"
					"offset" "0 0"
				}
			}
		}

		ScrollBarSliderBorder
		{
			"inset" "2 2 0 0"
			Left
			{
				"1"
				{
					"color" "BorderBright"
					"offset" "0 1"
				}
			}

			Right
			{
				"1"
				{
					"color" "BorderDark"
					"offset" "0 0"
				}
			}

			Top
			{
				"1"
				{
					"color" "BorderBright"
					"offset" "0 1"
				}
			}

			Bottom
			{
				"1"
				{
					"color" "BorderDark"
					"offset" "0 0"
				}
			}
		}

		ScrollBarButtonBorder
		{
			"inset" "2 2 0 0" [!$OSX]
			"inset" "-3 2 0 0" [$OSX]
			Left
			{
				"1"
				{
					"color" "Border.Bright"
					"offset" "0 1"
				}
			}

			Right
			{
				"1"
				{
					"color" "Border.Dark"
					"offset" "0 0"
				}
			}

			Top
			{
				"1"
				{
					"color" "Border.Bright"
					"offset" "0 1"
				}
			}

			Bottom
			{
				"1"
				{
					"color" "Border.Dark"
					"offset" "0 0"
				}
			}
		}
		
		ScrollBarButtonDepressedBorder
		{
			"inset" "2 2 0 0" [!$OSX]
			"inset" "-3 2 0 0" [$OSX]
			Left
			{
				"1"
				{
					"color" "Border.Dark"
					"offset" "0 1"
				}
			}

			Right
			{
				"1"
				{
					"color" "Border.Bright"
					"offset" "1 0"
				}
			}

			Top
			{
				"1"
				{
					"color" "Border.Dark"
					"offset" "0 0"
				}
			}

			Bottom
			{
				"1"
				{
					"color" "Border.Bright"
					"offset" "0 0"
				}
			}
		}

		TabBorder
		{
			"inset" "0 0 1 1"
			Left
			{
				"1"
				{
					"color" "Border.Bright"
					"offset" "0 1"
				}
			}

			Right
			{
				"1"
				{
					"color" "Border.Dark"
					"offset" "1 0"
				}
			}

			Top
			{
				"1"
				{
					"color" "Border.Bright"
					"offset" "0 0"
				}
			}

		}

		TabActiveBorder
		{
			"inset" "0 0 1 0"
			Left
			{
				"1"
				{
					"color" "Border.Bright"
					"offset" "0 0"
				}
			}

			Right
			{
				"1"
				{
					"color" "Border.Dark"
					"offset" "1 0"
				}
			}

			Top
			{
				"1"
				{
					"color" "Border.Bright"
					"offset" "0 0"
				}
			}

		}


		ToolTipBorder
		{
			"inset" "0 0 1 0"
			Left
			{
				"1"
				{
					"color" "Border.Dark"
					"offset" "0 0"
				}
			}

			Right
			{
				"1"
				{
					"color" "Border.Dark"
					"offset" "1 0"
				}
			}

			Top
			{
				"1"
				{
					"color" "Border.Dark"
					"offset" "0 0"
				}
			}

			Bottom
			{
				"1"
				{
					"color" "Border.Dark"
					"offset" "0 0"
				}
			}
		}

		// this is the border used for default buttons (the button that gets pressed when you hit enter)
		ButtonKeyFocusBorder
		{
			"inset" "0 0 1 1"
			Left
			{
				"1"
				{
					"color" "Border.Selection"
					"offset" "0 0"
				}
				"2"
				{
					"color" "Border.Bright"
					"offset" "0 1"
				}
			}
			Top
			{
				"1"
				{
					"color" "Border.Selection"
					"offset" "0 0"
				}
				"2"
				{
					"color" "Border.Bright"
					"offset" "1 0"
				}
			}
			Right
			{
				"1"
				{
					"color" "Border.Selection"
					"offset" "0 0"
				}
				"2"
				{
					"color" "Border.Dark"
					"offset" "1 0"
				}
			}
			Bottom
			{
				"1"
				{
					"color" "Border.Selection"
					"offset" "0 0"
				}
				"2"
				{
					"color" "Border.Dark"
					"offset" "0 0"
				}
			}
		}

		ButtonDepressedBorder
		{
			"inset" "2 1 1 1"
			Left
			{
				"1"
				{
					"color" "Border.Dark"
					"offset" "0 1"
				}
			}

			Right
			{
				"1"
				{
					"color" "Border.Bright"
					"offset" "1 0"
				}
			}

			Top
			{
				"1"
				{
					"color" "Border.Dark"
					"offset" "0 0"
				}
			}

			Bottom
			{
				"1"
				{
					"color" "Border.Bright"
					"offset" "0 0"
				}
			}
		}
	}

	//////////////////////// CUSTOM FONT FILES /////////////////////////////
	//
	// specifies all the custom (non-system) font files that need to be loaded to service the above described fonts
	CustomFontFiles
	{
		"1"		"resource/HALFLIFE2.ttf"
		"2"		"resource/HL2EP2.ttf"	
		"3"		"resource/marlett.ttf"
	}
}
