// Choreo version 1
actor "!target1"
{
  channel "speech"
  {
    event speak "monk01"
    {
      time 0.186667 5.326984
      ramp 1.00 1.00 1.00
      param "vo\monk\monk_01.wav"
    }
  }
  channel "facing"
  {
    event lookat "look at the player"
    {
      time -0.006666 5.546667
      ramp 0.97 1.00 0.87
      param "!player"
    }
  }
}

