"VertexLitGeneric"
{
	"$phong" 1
	"$phongexponent" 70
	"$phongboost"				1.0
	"$phongfresnelranges"		"[0.4 0.4 0.4]"
	"$surfaceprop" "flesh"
	"$halflambert" 1
	"$model" 1
	"$baseTexture" "Models/headcrab_classic/teeth_CL"
}
