"LightmappedGeneric"
{
	"$basetexture" "Concrete/concretewall046h"
	"$surfaceprop" "concrete"
	
        "$detail" "detail\noise_detail_01"
	"$detailscale" "7.345"
	"$detailblendfactor" .6
	"$detailblendmode" 0
}
