"LightmappedGeneric"
{
	"$basetexture" "Concrete/concretewall046e"
	"$surfaceprop" "concrete"
	
        "$detail" "detail\noise_detail_01"
	"$detailscale" "7.345"
	"$detailblendfactor" .6
	"$detailblendmode" 0
	"$envmap" "env_cubemap"
	"$basealphaenvmapmask" 1
	"$envmapcontrast" 1
	"$envmapsaturation" 1
	"$envmaptint" "[ .6 .6 .6]"

 	"LightmappedGeneric_HDR_dx9"
 	{
  		"$envmaptint" "[.25 .25 .25]"
 	}


	"LightmappedGeneric_DX9"
 	{
  		"$envmaptint" "[.25 .25 .25]"
 	}
}
