// envmaptint_fix
"LightmappedGeneric"
{
	"$basetexture" "concrete\concretefloor039a"
	"$surfaceprop" "concrete"
	
        "$detail" "detail\noise_detail_01"
	"$detailscale" "7.345"
	"$detailblendfactor" .6
	"$detailblendmode" 0
	"%keywords" "c17downtown"

	"LightmappedGeneric_DX9"
	{
		"$bumpmap" "concrete\concretefloor039a_normal"
	}

	"LightmappedGeneric_DX8"
	{
		"$bumpmap" "concrete\concretefloor039a_normal"
	}

}
