"VertexLitGeneric"
{
	// Original shader: VertexLitTexture
	"$basetexture" "models/Alyx/hand"
	"$bumpmap" "models/Alyx/hand_normal"
	"$halflambert" 1
	"$phong" "1"
	"$phongexponent" 8
	"$phongboost"	"2"
	"$phongfresnelranges"	"[0.01 0.5 2]"
	"$phongtint" "[.8 .5 .3]"
}
