"VertexLitGeneric"
{
	// Original shader: VertexLitMaskedEnvMappedTexture
	"$basetexture" "models/gibs/hc_gibs/M6CL"
	"$envmap" "models/gibs/hc_gibs/HC_env"
	"$envmapmask" "models/gibs/hc_gibs/M6CLmask"
	//"$envmapsphere" 1
}
