"Resource/HudLayout.res"
{
	HudHealth 
	{
		"fieldName"		"HudHealth"
		"xpos"	"6"
		"ypos"	"442"
		"wide"	"60"
		"tall"  "46"
		"visible" "1"
		"enabled" "1"

		"PaintBackgroundType"	"2"
		
		"text_xpos" "15"
		"text_ypos" "8"
		"digit_xpos" "47"
		"digit_ypos" "15"
	}
	
	HudSuit 
	{
		"fieldName"		"HudSuit"
		"xpos"	"65"
		"ypos"	"442"
		"wide"	"60"
		"tall"  "46"
		"visible" "1"
		"enabled" "1"

		"PaintBackgroundType"	"2"

		"text_xpos" "15"
		"text_ypos" "8"
		"digit_xpos" "47" 
		"digit_ypos" "15"  
	}

	HudAmmo
	{
		"fieldName" "HudAmmo"
		"xpos"	"r100"
		"ypos"	"442"
		"wide"	"146"
		"tall"  "46"
		"visible" "1"
		"enabled" "1"

		"PaintBackgroundType"	"2"

		"text_xpos" "15"
		"text_ypos" "8"
		"digit_xpos" "47" 	
		"digit_ypos" "15"  	
		"digit2_xpos" "70" 	
		"digit2_ypos" "20"
	}
	
	HudAmmoSecondary
	{
		"fieldName" "HudAmmoSecondary"
		"xpos"	"r63"
		"ypos"	"447"
		"wide"	"70"
		"tall"  "46"
		"visible" "1"
		"enabled" "1"

		"PaintBackgroundType"	"1"

		"digit_xpos" "47" 
		"digit_ypos" "15" 	
	}

	HudPosture
	{
		"fieldName" 		"HudPosture"
		"visible" 		"1"
		"PaintBackgroundType"	"2"
		"xpos"	"16"
		"ypos"	"316"
		"tall"  "36"
		"wide"	"36"
		"font"	"WeaponIconsSmall"
		"icon_xpos"	"10"
		"icon_ypos" 	"0"
	}

	HudSuitPower
	{
		"fieldName" "HudSuitPower"
		"visible" "1"
		"enabled" "1"
		"xpos"	"135"
		"ypos"	"445"
		"wide"	"102"
		"tall"	"26"
		
		"AuxPowerLowColor" "255 0 0 220"
		"AuxPowerHighColor" "255 220 0 220"
		"AuxPowerDisabledAlpha" "70"

		"BarInsetX" "8"
		"BarInsetY" "15"
		"BarWidth" "65"
		"BarHeight" "80"
		"BarChunkWidth" "6"
	}
	
	HudFlashlight
	{
		"fieldName" "HudFlashlight"
		"visible" "1"
		"xpos"	"r35"
		"tall"  "24"
		"wide"	"36"
		"font"	"WeaponIconsSmall"
		
		"icon_xpos"	"4"
		"icon_ypos" "-8"
		
		"BarInsetX" "4"
		"BarInsetY" "18"
		"BarWidth" "28"
		"BarHeight" "2"
		"BarChunkWidth" "2"
	}

	HudLocator
	{
		"fieldName" "HudLocator"
		"visible" "1"
		"PaintBackgroundType"	"2"
		"xpos"	"c8"
		"ypos"	"r36"
		"wide"	"64"
		"tall"  "24"
	}

	HudDamageIndicator
	{
		"fieldName" "HudDamageIndicator"
		"visible" "1"
		"enabled" "1"
	}
	
	HudDamageTiles
	{
		"fieldName" "HudDamageIndicator"
		"visible" "1"
		"enabled" "1"
		"wide"	 "640"
		"tall"	 "480"
	}

	HudZoom
	{
		"fieldName" "HudZoom"
		"visible" "1"
		"enabled" "1"
		"Circle1Radius" "66"
		"Circle2Radius"	"74"
		"DashGap"	"16"
		"DashHeight" "4"
		"BorderThickness" "88"
	}

	HudWeaponSelection
	{
		"fieldName" "HudWeaponSelection"
		"visible" "1"
		"enabled" "1"
		"wide"	 "640"
		"tall"	 "480"
	}

	HudCrosshair
	{
		"fieldName" "HudCrosshair"
		"visible" "1"
		"enabled" "1"
		"wide"	 "640"
		"tall"	 "480"
	}

	HudDeathNotice
	{
		"fieldName" "HudDeathNotice"
		"visible" "1"
		"enabled" "1"
		"wide"	 "640"
		"tall"	 "480"
	}

	HudVehicle
	{
		"fieldName" "HudVehicle"
		"visible" "1"
		"enabled" "1"
		"wide"	 "640"
		"tall"	 "480"
	}

	ScorePanel
	{
		"fieldName" "ScorePanel"
		"visible" "1"
		"enabled" "1"
		"wide"	 "640"
		"tall"	 "480"
	}

	HudTrain
	{
		"fieldName" "HudTrain"
		"visible" "1"
		"enabled" "1"
		"wide"	 "640"
		"tall"	 "480"
	}

	HudMOTD
	{
		"fieldName" "HudMOTD"
		"visible" "1"
		"enabled" "1"
		"wide"	 "640"
		"tall"	 "480"
	}

	HudMessage
	{
		"fieldName" "HudMessage"
		"visible" "1"
		"enabled" "1"
		"wide"	 "640"
		"tall"	 "480"
	}

	HudMenu
	{
		"fieldName" "HudMenu"
		"visible" "1"
		"enabled" "1"
		"wide"	 "640"
		"tall"	 "480"
	}

	HudCloseCaption
	{
		"fieldName" "HudCloseCaption"
		"visible"	"0"
		"enabled"	"1"
		"xpos"		"c-250"
		"ypos"		"276"
		"wide"		"500"
		"tall"		"136"

		"BgAlpha"	"128"

		"GrowTime"		"0.25"
		"ItemHiddenTime"	"0.2"  // Nearly same as grow time so that the item doesn't start to show until growth is finished
		"ItemFadeInTime"	"0.15"	// Once ItemHiddenTime is finished, takes this much longer to fade in
		"ItemFadeOutTime"	"0.3"
		"topoffset"		"0"
	}

	HudChat
	{
		"fieldName" "HudChat"
		"visible" "0"
		"enabled" "1"
		"xpos"	"0"
		"ypos"	"0"
		"wide"	 "4"
		"tall"	 "4"
	}

	HudHistoryResource
	{
		"fieldName" "HudHistoryResource"
		"visible" "1"
		"enabled" "1"
		"xpos"	"r252"
		"ypos"	"40"
		"wide"	 "248"
		"tall"	 "320"

		"history_gap"	"56" [!$OS]
		"history_gap"	"64" [$OSX]
		"icon_inset"	"38"
		"text_inset"	"36"
		"NumberFont"	"HudNumbersSmall"
	}

	HudGeiger
	{
		"fieldName" "HudGeiger"
		"visible" "1"
		"enabled" "1"
		"wide"	 "640"
		"tall"	 "480"
	}

	HUDQuickInfo
	{
		"fieldName" "HUDQuickInfo"
		"visible" "1"
		"enabled" "1"
		"wide"	 "640"
		"tall"	 "480"
	}

	HudWeapon
	{
		"fieldName" "HudWeapon"
		"visible" "1"
		"enabled" "1"
		"wide"	 "640"
		"tall"	 "480"
	}
	HudAnimationInfo
	{
		"fieldName" "HudAnimationInfo"
		"visible" "1"
		"enabled" "1"
		"wide"	 "640"
		"tall"	 "480"
	}

	HudPredictionDump
	{
		"fieldName" "HudPredictionDump"
		"visible" "1"
		"enabled" "1"
		"wide"	 "640"
		"tall"	 "480"
	}

	HudHintDisplay
	{
		"fieldName"	"HudHintDisplay"
		"visible"	"0"
		"enabled" "1"
		"Alpha"		"0"		// Remove this to enable hint hud element
		"xpos"	"r120"
		"ypos"	"r340"
		"wide"	"100"
		"tall"	"200"
		"text_xpos"	"8"
		"text_ypos"	"8"
		"text_xgap"	"8"
		"text_ygap"	"8"
		"TextColor"	"255 170 0 220"

		"PaintBackgroundType"	"2"
	}

	HudHintKeyDisplay
	{
		"fieldName"	"HudHintKeyDisplay"
		"visible"	"0"
		"enabled" 	"1"
		"xpos"		"r120"
		"ypos"		"r340"
		"wide"		"100"
		"tall"		"200"
		"text_xpos"	"8"
		"text_ypos"	"8"
		"text_xgap"	"8"
		"text_ygap"	"8"
		"TextColor"	"255 170 0 220"

		"PaintBackgroundType"	"2"
	}


	HudSquadStatus
	{
		"fieldName"	"HudSquadStatus"
		"visible"	"1"
		"enabled" "1"
		"xpos"	"r120"
		"ypos"	"380"
		"wide"	"104"
		"tall"	"46"
		"text_xpos"	"8"
		"text_ypos"	"34"
		"SquadIconColor"	"255 220 0 160"
		"IconInsetX"	"8"
		"IconInsetY"	"0"
		"IconGap"		"24"

		"PaintBackgroundType"	"2"
	}

	HudPoisonDamageIndicator
	{
		"fieldName"	"HudPoisonDamageIndicator"
		"visible"	"0"
		"enabled" "1"
		"xpos"	"16"
		"ypos"	"346"
		"wide"	"136"
		"tall"	"38"
		"text_xpos"	"8"
		"text_ypos"	"8"
		"text_ygap" "14"
		"TextColor"	"255 170 0 220"
		"PaintBackgroundType"	"2"
	}

	HudCredits
	{
		"fieldName"	"HudCredits"
		"TextFont"	"Default"
		"visible"	"1"
		"xpos"	"0"
		"ypos"	"0"
		"wide"	"640"
		"tall"	"480"
		"TextColor"	"255 255 255 192"

	}
	
	HUDAutoAim
	{
		"fieldName" "HUDAutoAim"
		"visible" "1"
		"enabled" "1"
		"wide"	 "640"
		"tall"	 "480"
	}

	HudCommentary
	{
		"fieldName" "HudCommentary"
		"xpos"	"c-190"
		"ypos"	"350"
		"wide"	"380"
		"tall"  "40"
		"visible" "1"
		"enabled" "1"
		
		"PaintBackgroundType"	"2"
		
		"bar_xpos"		"50"
		"bar_ypos"		"20"
		"bar_height"	"8"
		"bar_width"		"320"
		"speaker_xpos"	"50"
		"speaker_ypos"	"8"
		"count_xpos_from_right"	"10"	// Counts from the right side
		"count_ypos"	"8"
		
		"icon_texture"	"vgui/hud/icon_commentary"
		"icon_xpos"		"0"
		"icon_ypos"		"0"		
		"icon_width"	"40"
		"icon_height"	"40"
	}
	
	HudHDRDemo
	{
		"fieldName" "HudHDRDemo"
		"xpos"	"0"
		"ypos"	"0"
		"wide"	"640"
		"tall"  "480"
		"visible" "1"
		"enabled" "1"
		
		"Alpha"	"255"
		"PaintBackgroundType"	"2"
		
		"BorderColor"	"0 0 0 255"
		"BorderLeft"	"16"
		"BorderRight"	"16"
		"BorderTop"		"16"
		"BorderBottom"	"64"
		"BorderCenter"	"0"
		
		"TextColor"		"255 255 255 255"
		"LeftTitleY"	"422"
		"RightTitleY"	"422"
	}

	"HudChatHistory"
	{
		"ControlName"		"RichText"
		"fieldName"		"HudChatHistory"
		"xpos"			"10"
		"ypos"			"290"
		"wide"	 		"300"
		"tall"			 "75"
		"wrap"			"1"
		"autoResize"		"1"
		"pinCorner"		"1"
		"visible"		"0"
		"enabled"		"1"
		"labelText"		""
		"textAlignment"		"south-west"
		"font"			"Default"
		"maxchars"		"-1"
	}

	AchievementNotificationPanel	
	{
		"fieldName"				"AchievementNotificationPanel"
		"visible"				"1"
		"enabled"				"1"
		"xpos"					"0"
		"ypos"					"180"
		"wide"					"f10"
		"tall"					"100"
	}
}