"LightmappedGeneric"
{
	"$basetexture" "Metal/metalwall070b"
	"%keywords" "c17industrial"
	"$surfaceprop"  "metal"
	"$detail" "detail\metal_detail_01"
	"$detailscale" "4.283"
	"$detailblendfactor" .8
	"$detailblendmode" "0"



	"LightmappedGeneric_DX9"
	{
		"$bumpmap" "Metal/metalwall070b_normal"
	}
}