"VertexLitGeneric"
{
	// Original shader: VertexLitMaskedEnvMappedTexture
	"$basetexture" "models/Police/boot"
	"$envmapmask" "models/Police/boot_mask"
	"$envmap" "models/Police/envmap"
//	"$envmapsphere" 1
	"$multipass" 1
}
