// Choreo version 1
actor "Monk"
{
  channel "Audio"
  {
    event speak "To the church"
    {
      time 0.153334 1.238867
      ramp 1.00 1.00 1.00
      param "vo\monk\monk_balc13.wav"
      param2 "90dB"
    }
  }
  channel "look at"
  {
    event lookat "look at player"
    {
      time 0.013334 1.480000
      ramp 1.00 1.00 1.00
      param "!player"
    }
  }
}

