// Choreo version 1
actor "monk"
{
  channel "targets"
  {
    event lookat "look at player"
    {
      time 1.200000 4.200000
      ramp 1.00 1.00 1.00
      param "!player"
    }
    event moveto "cue2"
    {
      time 0.080000 -1.000000
      ramp 1.00 1.00 1.00
      param "balcony_cue_02"
    }
  }
  channel "audio"
  {
    event speak "audio1"
    {
      time 0.393334 4.352336
      ramp 1.00 1.00 1.00
      param "vo\monk\monk_balc03a.wav"
      fixedlength
    }
  }
  channel "scripted"
  {
    event sequence "throw"
    {
      time 1.293333 4.126666
      ramp 1.00 1.00 1.00
      param "throwshotgun"
      fixedlength
    }
  }
}

mapname "maps\balcony_large.bsp"
fps 60
snap off
