// Choreo version 1
actor "Monk"
{
  channel "Audio"
  {
    event speak "Very good brother"
    {
      time 0.153334 2.835239
      ramp 1.00 1.00 1.00
      param "vo\monk\monk_balc07.wav"
      param2 "90dB"
    }
    event speak "get to the church"
    {
      time 4.579999 7.668253
      ramp 1.00 1.00 1.00
      param "vo\monk\monk_balc08.wav"
      param2 "90dB"
    }
  }
  channel "look at"
  {
    event lookat "look at player"
    {
      time 0.013334 8.040001
      ramp 1.00 1.00 1.00
      param "!player"
    }
  }
}

