// Choreo version 1
actor "monk"
{
  channel "targets"
  {
    event lookat "look at player"
    {
      time 0.033333 8.050000
      ramp 1.00 1.00 0.90
      param "!player"
    }
    event lookat "look at player"
    {
      time 10.800000 12.933333
      ramp 0.98 1.00 1.00
      param "!player"
    }
    event firetrigger "zom howl"
    {
      time 9.916667 -1.000000
      ramp 1.00 1.00 1.00
      param "1"
    }
  }
  channel "audio"
  {
    event speak "audio1"
    {
      time 0.00000 1.393016
      ramp 1.00 1.00 1.00
      param "vo\monk\monk_closer.wav"
	  param2 "80dB"
      fixedlength
      tags
      {
        "closer" 0.401688
      }
    }
    event speak "they come"
    {
      time 11.216666 12.305101
      ramp 1.00 1.00 1.00
      param "vo\monk\monk_theycome.wav"
      fixedlength
      tags
      {
        "they" 0.095550
        "come" 0.306863
      }
    }
    event speak "hell"
    {
      time 1.950000 6.826191
      ramp 1.00 1.00 1.00
      param "vo\monk\monk_stirredup.wav"
	  param2 "80dB"
      fixedlength
      tags
      {
        "you" 0.017637
        "stirred" 0.052500
        "hell" 0.170625
        "heh" 0.503262
        "bheh" 0.397031
        "a" 0.584063
        "man" 0.627539
        "after" 0.744023
        "heart\" 0.888398
      }
    }
    event speak "hush"
    {
      time 8.800000 9.438549
      ramp 1.00 1.00 1.00
      param "vo\monk\monk_hush.wav"
      fixedlength
      tags
      {
        "hush" 0.159737
      }
    }
  }
  channel "scripted"
  {
    event sequence "pose"
    {
      time 0.233333 3.566666
      ramp 0.85 1.00 1.00
      param "balc_rail_leanpose"
      fixedlength
    }
    event sequence "pose2"
    {
      time 3.553332 6.886665
      ramp 1.00 1.00 1.00
      param "balc_rail_leanpose"
      fixedlength
    }
    event sequence "pose3"
    {
      time 6.186666 9.520000
      ramp 1.00 1.00 0.84
      param "balc_rail_leanpose"
      fixedlength
    }
  }
  channel "head"
  {
    event flexanimation "head"
    {
      time 8.150000 10.916667
      ramp 1.00 0.00 1.00
      param ""
      flexanimations samples_use_time
      {
        "head_rightleft"         range 55.0 -55.0        
        {
          0.0022 0.5000
          0.0646 0.5000
          0.3073 0.7900
          0.4552 0.8600
          1.0305 0.8200
          1.4519 0.1900
          2.1778 0.1100
        }
        "head_updown"         range 35.0 -30.0        
        {
          0.0022 0.5385
        }
        "head_tilt"         range 18.0 -18.0        
        {
          0.0022 0.4998
        }
        "move_rightleft"         range 6.0 -6.0        
        {
          0.0022 0.4999
        }
        "move_forwardback"         range 6.0 -10.0        
        {
          0.0022 0.3750
        }
        "move_updown"         range 2.0 -10.0        
        {
          0.0022 0.1667
        }
        "body_rightleft"         range 50.0 -50.0        
        {
          0.0022 0.5000
        }
        "body_updown"         range 40.0 -20.0        
        {
          0.0022 0.6667
        }
        "body_tilt"         range 15.0 -15.0        
        {
          0.0022 0.5000
        }
        "chest_rightleft"         range 40.0 -40.0        
        {
          0.0022 0.4999
        }
        "chest_updown"         range 50.0 -25.0        
        {
          0.0022 0.6664
        }
        "chest_tilt"         range 20.0 -20.0        
        {
          0.0022 0.4998
        }
        "head_forwardback"         range -1.0 1.0        
        {
          0.0022 0.5000
        }
      }
    }
  }
  channel "head_body"
  {
    event flexanimation "body"
    {
      time 0.000000 12.900000
      ramp 1.00 1.00 1.00
      param ""
      flextimingtags
      {
        "come" 0.043831 1
        "closer" 0.056818 1
        "h1" 0.482955 1
        "heartf" 0.499188 1
        "react" 0.616883 1
        "hold2" 0.788961 1
        "hold" 0.815747 1
      }
      flexanimations samples_use_time
      {
        "head_rightleft"         range 55.0 -55.0        
        {
          0.0000 0.5000
          0.3696 0.5000
          0.5464 0.5200
          0.6655 0.5900
          0.7585 0.5907
          0.9722 0.5595
          1.1838 0.5200
          1.4461 0.4900
          1.8090 0.4985
          2.3000 0.5300
          2.7167 0.5300
          2.8000 0.4800
          2.8833 0.4500
          6.2972 0.4997
          7.6833 0.5100
          7.7667 0.5300
          7.8500 0.5400
          8.6500 0.5300
          8.7500 0.7200
          8.8333 0.7900
          8.9500 0.8200
          9.8500 0.7700
          10.1167 0.3800
          10.2390 0.3200
          10.9529 0.3200
          11.0796 0.5100
          11.1745 0.5500
        }
        "head_updown"         range 35.0 -30.0        
        {
          0.0000 0.5385
          0.3696 0.5285
          0.5333 0.4900
          0.6500 0.5600
          0.7420 0.6600
          0.8493 0.6800
          1.0648 0.5778
          1.3964 0.5200
          1.8090 0.5320
          1.9500 0.5400
          2.0333 0.6000
          2.2333 0.6800
          2.6333 0.7000
          2.7333 0.7100
          2.8167 0.4900
          2.9000 0.3900
          2.9667 0.3700
          3.0667 0.4300
          3.2500 0.4500
          3.7833 0.4500
          3.8667 0.4200
          3.9833 0.5300
          4.0833 0.5600
          4.2333 0.5300
          4.3500 0.5100
          4.4333 0.5500
          4.5167 0.5800
          4.7500 0.5700
          4.8167 0.6200
          4.9000 0.6500
          5.0000 0.6100
          5.1000 0.4400
          5.2500 0.4200
          5.6333 0.5700
          6.2167 0.6300
          6.3333 0.5154
          6.4333 0.4800
          6.6000 0.5300
          6.8333 0.5600
          7.7167 0.5600
          7.8000 0.6100
          7.9000 0.6300
          8.5667 0.6500
          8.6500 0.6200
          8.7500 0.4300
          8.8167 0.3900
          8.9333 0.3600
          9.9000 0.3700
          10.2128 0.4000
          10.9529 0.4800
          11.0796 0.5600
          11.1904 0.5700
        }
        "head_tilt"         range 18.0 -18.0        
        {
          0.0000 0.5000
          0.4500 0.4500
          0.6333 0.3500
          0.7498 0.3100
          0.8327 0.3300
          1.0482 0.3314
          1.2914 0.3400
          1.8132 0.3836
          2.2167 0.4300
          2.6333 0.4600
          2.7500 0.4600
          2.8000 0.3600
          2.8833 0.2600
          3.0333 0.2300
          3.3000 0.2600
          6.2972 0.4330
          8.6167 0.4400
          8.6833 0.4700
          8.7500 0.6700
          8.8333 0.7300
          8.9333 0.7600
          9.9000 0.7800
          10.1167 0.3900
          10.2652 0.3100
          10.9529 0.3200
          11.0796 0.4900
          11.2062 0.5600
        }
        "move_rightleft"         range 6.0 -6.0        
        {
          0.0000 0.4600
          0.4333 0.4600
          0.5667 0.4900
          0.7332 0.4904
          1.0508 0.4592
          1.8090 0.4559
          6.2972 0.4732
        }
        "move_forwardback"         range 6.0 -10.0        
        {
          0.0000 0.3750
          0.3751 0.3750
          0.5134 0.3750
          0.6671 0.3750
          1.0508 0.3750
          1.8090 0.3750
          6.2972 0.3750
        }
        "move_updown"         range 2.0 -10.0        
        {
          0.0000 0.1667
          0.3751 0.1667
          0.5134 0.1667
          0.6671 0.1667
          1.0508 0.1667
          1.8090 0.1667
          6.2972 0.1667
        }
        "body_rightleft"         range 50.0 -50.0        
        {
          0.0000 0.5000
          0.3751 0.5000
          0.5134 0.5000
          0.6671 0.5000
          1.0508 0.5000
          1.8090 0.5000
          6.2972 0.5000
        }
        "body_updown"         range 40.0 -20.0        
        {
          0.0000 0.6667
          0.3751 0.6667
          0.5134 0.6667
          0.6671 0.6667
          1.0508 0.6667
          1.8090 0.6667
          6.2972 0.6667
        }
        "body_tilt"         range 15.0 -15.0        
        {
          0.0000 0.5000
          0.3751 0.5000
          0.5134 0.4900
          0.6671 0.4900
          1.0508 0.5002
          1.8090 0.5007
          6.2972 0.5005
        }
        "chest_rightleft"         range 40.0 -40.0        
        {
          0.0000 0.5000
          0.3751 0.5000
          0.5134 0.5100
          0.6671 0.5100
          1.0482 0.5298
          1.8109 0.5393
          2.0263 0.5200
          2.2087 0.5200
          2.6232 0.4900
          2.7724 0.4900
          2.9382 0.4900
          3.3360 0.5000
          3.7340 0.5000
          3.8500 0.5000
          3.9826 0.4900
          4.6789 0.4800
          4.7602 0.4900
          4.9757 0.4800
          5.5225 0.4900
          6.1224 0.4900
          6.2989 0.4979
          6.4985 0.4900
          7.1775 0.4600
          7.7667 0.4600
          8.0667 0.4200
          8.6333 0.4500
          8.8667 0.5300
          9.1500 0.5700
          9.7833 0.5500
          10.1500 0.4500
          10.5888 0.4200
          10.8263 0.4400
          11.0667 0.4800
          11.3170 0.5100
          11.5667 0.5200
        }
        "chest_updown"         range 50.0 -25.0        
        {
          0.0000 0.6200
          0.3167 0.6200
          0.4833 0.5900
          0.6167 0.6500
          0.7000 0.7100
          0.7664 0.7104
          0.9984 0.7083
          1.3795 0.5900
          1.8109 0.5627
          2.0263 0.6500
          2.1922 0.6900
          2.6167 0.7000
          2.7500 0.6400
          2.8833 0.5900
          3.3500 0.5500
          3.6833 0.5200
          3.7833 0.5500
          3.8667 0.6400
          3.9333 0.6700
          4.3500 0.6900
          4.4167 0.7100
          4.5167 0.7200
          4.7667 0.7300
          4.9000 0.7100
          5.0167 0.6500
          5.1000 0.6200
          5.5667 0.5700
          5.9500 0.5700
          6.1500 0.6000
          6.3048 0.6781
          6.4985 0.7200
          6.8000 0.7200
          7.2500 0.6200
          7.5000 0.5800
          7.7960 0.5800
          7.9000 0.6100
          8.0000 0.6200
          8.7000 0.6000
          8.9000 0.5800
          9.2333 0.5700
          9.8833 0.5400
          10.9054 0.5800
          11.1500 0.6300
          11.3833 0.7000
          11.5667 0.7200
        }
        "chest_tilt"         range 20.0 -20.0        
        {
          0.0000 0.5000
          0.3751 0.5000
          0.5134 0.5000
          0.6671 0.5000
          1.0508 0.5000
          1.8090 0.5000
          2.0258 0.4800
          2.3241 0.4600
          2.6887 0.4700
          2.7551 0.4700
          2.9539 0.4800
          3.3516 0.5000
          3.7494 0.5000
          3.8488 0.4800
          3.9482 0.4700
          4.6608 0.4600
          4.7602 0.4700
          4.9923 0.4800
          5.5557 0.4900
          6.1027 0.4700
          6.2989 0.4400
          6.4985 0.4200
          7.1775 0.4300
          8.7000 0.4600
          9.0333 0.4400
          9.3667 0.4200
          9.9333 0.4400
          10.3961 0.5000
          10.9213 0.5300
          11.2062 0.5000
          11.4167 0.4900
          11.5667 0.4900
        }
        "head_forwardback"         range -1.0 1.0        
        {
          0.0000 0.5000
          0.3751 0.5000
          0.5134 0.5000
          0.6671 0.5000
          1.0508 0.5000
          1.8090 0.5000
          6.2972 0.5000
        }
        "eyes_updown"         range 30.0 -30.0        
        {
          8.6833 0.5200
          8.7536 0.5000
          8.9000 0.4900
          8.9833 0.4100
          9.7500 0.3900
          9.9000 0.5200
          10.1500 0.5300
          10.3000 0.6100
          10.5167 0.6300
          10.6000 0.4700
          10.9167 0.4200
          11.0333 0.5300
        }
        "eyes_rightleft"         range 30.0 -30.0        
        {
          8.6500 0.5000
          8.7000 1.0000
          8.8667 1.0000
          9.8500 0.8100
          10.0167 0.1100
          10.9500 0.1500
          11.0333 0.5200
        }
      }
    }
  }
  channel "face"
  {
    event flexanimation "face"
    {
      time 0.000000 13.000000
      ramp 1.00 1.00 1.00
      param ""
      flextimingtags
      {
        "come" 0.025162 1
        "hold1" 0.276786 1
        "hold2" 0.288149 1
        "hold3" 0.426136 1
        "hold4" 0.469968 1
        "hold6" 0.500812 1
        "hold7" 0.550325 1
      }
      flexanimations samples_use_time
      {
        "lid_raiser"         combo        
        {
          0.0000 0.0000
          0.1688 0.0000
          0.3993 0.0000
          0.5660 0.0000
          0.7633 0.0000
          0.9294 0.0000
          1.1683 0.0000
          1.8848 0.0000
          1.9886 0.0000
          2.6117 0.0000
          2.8505 0.0000
          3.0998 0.0000
          3.2451 0.0000
          3.6573 0.0000
          4.5863 0.0000
          4.7695 0.0000
          4.8644 0.0000
          5.5683 0.0000
          6.1406 0.0000
          6.3206 0.1100
          6.5106 0.1100
          7.1464 0.1055
          7.9456 0.1053
          8.3607 0.1055
          8.5667 0.1100
          8.5833 0.1100
          8.6948 0.0000
          10.1510 0.0000
          11.2167 0.0000
          11.3539 0.4000
          11.4594 0.4000
          11.5755 0.0000
          12.9472 0.0000
        }
        {
          0.0000 0.5000
          0.1688 0.5000
          0.3993 0.5000
          0.5660 0.5000
          0.7633 0.5000
          0.9294 0.5000
          1.1683 0.5000
          1.8848 0.5000
          1.9886 0.5000
          2.6117 0.5000
          2.8505 0.5000
          3.0998 0.5000
          3.2451 0.5000
          3.6573 0.5000
          4.5863 0.5000
          4.7695 0.5000
          4.8644 0.5000
          5.5683 0.5000
          6.1406 0.5000
          6.3206 0.5000
          6.5106 0.5000
          7.1464 0.5000
          7.9456 0.5000
          8.3607 0.5000
          8.5682 0.5000
          8.5787 0.5000
          8.6948 0.5000
          10.1510 0.5000
          11.2167 0.5000
          11.3539 0.5000
          11.4594 0.5000
          11.5755 0.5000
          12.9472 0.5000
        }
        "lid_tightener"         combo        
        {
          0.0000 0.1300
          0.1688 0.1408
          0.3993 0.7600
          0.5660 0.7563
          0.7633 0.0000
          0.9294 0.0000
          1.1683 0.3100
          1.8848 0.3095
          1.9886 0.1500
          2.6117 0.1500
          2.8505 0.0000
          3.0998 0.0000
          3.2451 0.0000
          3.6573 0.0000
          3.7985 0.3500
          3.9035 0.3500
          4.1031 0.3100
          4.2501 0.3100
          4.4182 0.3500
          4.5863 0.3263
          4.7695 0.3216
          4.8644 0.3262
          5.5683 0.3800
          6.1406 0.3800
          6.3206 0.3900
          6.5106 0.3900
          7.1464 0.3741
          7.9456 0.0199
          8.3607 0.0000
          8.5500 0.1800
          8.7000 0.5500
          8.7500 0.6100
          10.1500 0.5931
          11.0833 0.5800
          11.2167 0.5331
          11.3539 0.0000
          11.4594 0.0000
          11.5755 0.0000
          12.9472 0.0000
        }
        {
          0.0000 0.5000
          0.1688 0.5000
          0.3993 0.5000
          0.5660 0.5000
          0.7633 0.5000
          0.9294 0.5000
          1.1683 0.5000
          1.8848 0.5000
          1.9886 0.5000
          2.6117 0.5000
          2.8505 0.5000
          3.0998 0.5000
          3.2451 0.5000
          3.6573 0.5000
          3.7985 0.5000
          3.9035 0.5000
          4.1031 0.5000
          4.2501 0.5000
          4.4182 0.5000
          4.5863 0.5000
          4.7695 0.5000
          4.8644 0.5000
          5.5683 0.5000
          6.1406 0.5000
          6.3206 0.5000
          6.5106 0.5000
          7.1464 0.5000
          7.9456 0.5000
          8.3607 0.5000
          8.5682 0.5000
          8.5787 0.5000
          8.6948 0.5000
          10.1510 0.5000
          11.2167 0.5000
          11.3539 0.5000
          11.4594 0.5000
          11.5755 0.5000
          12.9472 0.5000
        }
        "lid_droop"         combo        
        {
          0.0000 0.1300
          0.1688 0.1317
          0.3993 0.1300
          0.5660 0.1279
          0.7633 0.0000
          0.9294 0.0000
          1.1683 0.0000
          1.8848 0.0000
          1.9886 0.0000
          2.6117 0.0000
          2.8505 0.0000
          3.0998 0.0000
          3.2451 0.0000
          3.6573 0.0000
          4.5863 0.0000
          4.7695 0.0000
          4.8644 0.0000
          5.5683 0.0000
          6.1406 0.0000
          6.3206 0.0000
          6.5106 0.0000
          7.1464 0.0000
          7.9456 0.0000
          8.3607 0.0000
          8.5682 0.0000
          8.5787 0.0000
          8.6948 0.0000
          10.1510 0.0000
          11.2167 0.0000
          11.3539 0.0000
          11.4594 0.0000
          11.5755 0.0000
          12.9472 0.0000
        }
        {
          0.0000 0.5000
          0.1688 0.5000
          0.3993 0.5000
          0.5660 0.5000
          0.7633 0.5000
          0.9294 0.5000
          1.1683 0.5000
          1.8848 0.5000
          1.9886 0.5000
          2.6117 0.5000
          2.8505 0.5000
          3.0998 0.5000
          3.2451 0.5000
          3.6573 0.5000
          4.5863 0.5000
          4.7695 0.5000
          4.8644 0.5000
          5.5683 0.5000
          6.1406 0.5000
          6.3206 0.5000
          6.5106 0.5000
          7.1464 0.5000
          7.9456 0.5000
          8.3607 0.5000
          8.5682 0.5000
          8.5787 0.5000
          8.6948 0.5000
          10.1510 0.5000
          11.2167 0.5000
          11.3539 0.5000
          11.4594 0.5000
          11.5755 0.5000
          12.9472 0.5000
        }
        "blink"        
        {
          0.0000 0.0000
          0.1688 0.0000
          0.3993 0.0000
          0.5660 0.0000
          0.7633 0.0000
          0.9294 0.0000
          1.1683 0.0000
          1.8848 0.0000
          1.9886 0.0000
          2.6117 0.0000
          2.8505 0.0000
          3.0998 0.0000
          3.2451 0.0000
          3.6573 0.0000
          4.5863 0.0000
          4.7695 0.0000
          4.8644 0.0000
          5.5683 0.0000
          6.1406 0.0000
          6.3206 0.0000
          6.5106 0.0000
          7.1464 0.0000
          7.9456 0.0000
          8.3607 0.0000
          8.5682 0.0000
          8.5787 0.0000
          8.6948 0.0000
          10.1510 0.0000
          11.2167 0.0000
          11.3539 0.0000
          11.4594 0.0000
          11.5755 0.0000
          12.9472 0.0000
        }
        "inner_raiser"         combo        
        {
          0.0000 0.3000
          0.1688 0.3038
          0.3993 0.3000
          0.5660 0.3061
          0.7633 0.6600
          0.9294 0.6600
          1.1683 0.0600
          1.8848 0.0522
          1.9886 0.4400
          2.6117 0.4400
          2.8505 0.0000
          3.0998 0.0000
          3.2451 0.0000
          3.6573 0.0000
          3.7985 0.9000
          3.9035 0.9000
          4.1031 0.7500
          4.2501 0.7500
          4.4182 0.9000
          4.5863 0.8016
          4.8644 0.7960
          5.1000 0.5100
          5.5683 0.6600
          6.1406 0.6600
          6.3206 0.7100
          6.5106 0.7100
          7.1464 0.6810
          7.9456 0.8398
          8.3607 0.8600
          8.5682 1.0000
          8.5787 1.0000
          8.6948 0.5700
          8.7667 0.5200
          10.1510 0.5458
          11.2167 0.5458
          11.3539 0.6800
          11.4594 0.6800
          11.5833 0.5300
          11.7167 0.3900
          11.8833 0.3700
          12.9472 0.3418
        }
        {
          0.0000 0.4500
          0.1688 0.4494
          0.3993 0.4500
          0.5660 0.4500
          0.7633 0.4494
          0.9294 0.4494
          1.1683 0.4499
          1.8848 0.4504
          1.9886 0.4504
          2.6117 0.4504
          2.8505 0.4900
          3.0998 0.5000
          3.2451 0.5000
          3.6573 0.5000
          3.7985 0.5000
          3.9035 0.5000
          4.1031 0.5000
          4.2501 0.5000
          4.4182 0.5000
          4.5863 0.5000
          4.7695 0.5000
          4.8644 0.5000
          5.5683 0.5000
          6.1406 0.5000
          6.3206 0.5000
          6.5106 0.5000
          7.1464 0.5000
          7.9456 0.5226
          8.3607 0.5000
          8.5682 0.0000
          8.5787 0.5000
          8.6948 0.0000
          10.1510 0.0026
          11.2167 0.0026
          11.3539 0.0026
          11.4594 0.0026
          11.5755 0.0026
          12.9472 0.0175
        }
        "outer_raiser"         combo        
        {
          0.0000 0.8000
          0.1688 0.8103
          0.3993 0.8000
          0.5660 0.8036
          0.7633 1.0000
          0.9294 1.0000
          1.1683 0.3900
          1.8848 0.3777
          1.9886 0.4100
          2.6117 0.4100
          2.8505 0.0000
          3.0998 0.0000
          3.2451 0.0000
          3.6573 0.0000
          3.7985 0.3300
          3.9035 0.3300
          4.1031 0.3000
          4.2501 0.3000
          4.4182 0.3300
          4.5863 0.3138
          4.8644 0.3122
          5.1167 0.2100
          5.5683 0.3900
          6.1406 0.3900
          6.3206 0.7100
          6.5106 0.7100
          7.1500 0.6610
          7.9456 0.2963
          8.3607 0.2800
          8.5682 0.5600
          8.6948 0.5600
          10.1510 0.5452
          11.2167 0.5452
          11.3539 0.9300
          11.4594 0.9300
          11.5833 0.7500
          11.6833 0.5900
          11.8500 0.5200
          12.9472 0.4651
        }
        {
          0.0000 0.0000
          0.1688 0.0000
          0.3993 0.0000
          0.5660 0.0080
          0.7633 0.4900
          0.9294 0.4900
          1.1683 0.0000
          1.8848 0.0007
          1.9886 0.0007
          2.6117 0.0007
          2.8505 0.4900
          3.0998 0.5000
          3.2451 0.5000
          3.6573 0.5000
          3.7985 0.5000
          3.9035 0.5000
          4.1031 0.5000
          4.2501 0.5000
          4.4182 0.5000
          4.5863 0.5000
          4.7695 0.5000
          4.8644 0.5000
          5.5683 0.5000
          6.1406 0.5000
          6.3206 0.5000
          6.5106 0.5000
          7.1464 0.5000
          7.9456 0.5154
          8.3607 0.5000
          8.5682 0.1600
          8.5787 0.5000
          8.6948 0.1600
          10.1510 0.1618
          11.2167 0.1618
          11.3539 0.1618
          11.4594 0.1618
          11.5755 0.1618
          12.9472 0.1719
        }
        "lowerer"         combo        
        {
          0.0000 0.2900
          0.1688 0.2995
          0.3993 0.6900
          0.5660 0.6842
          0.7633 0.0000
          0.9294 0.0000
          1.1683 0.0000
          1.8848 0.0096
          1.9886 0.0096
          2.6117 0.0096
          2.8505 0.7100
          3.0998 0.7098
          3.2451 0.4400
          3.6573 0.4400
          4.5863 0.4239
          4.8644 0.4265
          5.1333 0.6100
          5.5683 0.5000
          6.1406 0.5000
          6.3206 0.2100
          6.5106 0.2100
          7.1464 0.2014
          7.9456 0.1820
          8.3607 0.2014
          8.5682 0.6300
          8.5787 0.6300
          8.6948 0.9600
          10.1500 0.9716
          11.2167 0.8816
          11.3500 0.1000
          11.4667 0.0300
          11.5755 0.1900
          11.7500 0.2400
          12.9500 0.1088
        }
        {
          0.0000 0.5000
          0.1688 0.5000
          0.3993 0.5000
          0.5660 0.5000
          0.7633 0.5000
          0.9294 0.5000
          1.1683 0.5000
          1.8848 0.5022
          1.9886 0.5022
          2.6117 0.5022
          2.8505 0.6600
          3.0998 0.6600
          3.2451 0.6600
          3.6573 0.6600
          4.5863 0.6541
          4.7695 0.6519
          4.8644 0.6542
          5.5683 0.6518
          6.1406 0.6518
          6.3206 0.6543
          6.5106 0.6543
          7.1464 0.6480
          7.9456 0.6542
          8.3607 0.6480
          8.5682 0.5100
          8.5787 0.5100
          8.6948 0.5100
          10.1510 0.5097
          11.2167 0.5097
          11.3539 0.5097
          11.4594 0.5097
          11.5755 0.5097
          12.9472 0.5094
        }
        "cheek_raiser"         combo        
        {
          0.0000 0.2300
          0.1688 0.2359
          0.3993 0.4300
          0.5660 0.4257
          0.7633 0.0000
          0.9294 0.0000
          1.1683 0.1900
          1.8848 0.1957
          1.9886 0.0500
          2.6117 0.0500
          2.8505 0.4400
          3.0998 0.4397
          3.2451 0.3600
          3.6573 0.3600
          3.7985 0.8300
          3.9035 0.8300
          4.1031 0.6300
          4.2501 0.6300
          4.4182 0.8300
          4.5863 0.6901
          4.8644 0.6884
          5.1167 0.6789
          5.5683 0.4800
          6.1406 0.4800
          6.3206 0.7800
          6.5106 0.7800
          7.1500 0.6782
          7.9456 0.0791
          8.3607 0.0300
          8.5682 0.0310
          8.5787 0.0310
          8.6948 0.0310
          10.1510 0.0302
          11.2167 0.0302
          11.3539 0.0302
          11.4594 0.0302
          11.5755 0.0302
          12.9472 0.0293
        }
        {
          0.0000 0.5000
          0.1688 0.5000
          0.3993 0.5000
          0.5660 0.5000
          0.7633 0.5000
          0.9294 0.5000
          1.1683 0.5000
          1.8848 0.5000
          1.9886 0.5000
          2.6117 0.5000
          2.8505 0.5000
          3.0998 0.5000
          3.2451 0.5000
          3.6573 0.5000
          3.7985 0.5000
          3.9035 0.5000
          4.1031 0.5000
          4.2501 0.5000
          4.4182 0.5000
          4.5863 0.5000
          4.7695 0.5000
          4.8644 0.5000
          5.5683 0.5000
          6.1406 0.5000
          6.3206 0.5000
          6.5106 0.5000
          7.1464 0.5000
          7.9456 0.5000
          8.3607 0.5000
          8.5682 0.5000
          8.5787 0.5000
          8.6948 0.5000
          10.1510 0.5000
          11.2167 0.5000
          11.3539 0.5000
          11.4594 0.5000
          11.5755 0.5000
          12.9472 0.5000
        }
        "upper_raiser"         combo        
        {
          0.5660 0.0000
          0.7633 0.0000
          0.9294 0.0000
          1.1683 0.0000
          1.8848 0.0000
          1.9886 0.0000
          2.6117 0.0000
          2.8505 0.0000
          3.0998 0.0000
          3.2451 0.0000
          3.6573 0.0000
          4.5863 0.0000
          4.7695 0.0000
          4.8644 0.0000
          5.5683 0.0000
          6.1406 0.0000
          6.3206 0.0000
          6.5106 0.0000
          7.1464 0.0000
          7.9456 0.0000
          8.3607 0.0000
          8.5682 0.0000
          8.5787 0.0000
          8.6948 0.0000
          10.1510 0.0000
          11.2167 0.0000
          11.3539 0.0000
          11.4594 0.0000
          11.5755 0.0000
          12.9472 0.0000
        }
        {
          0.5660 0.5000
          0.7633 0.5000
          0.9294 0.5000
          1.1683 0.5000
          1.8848 0.5000
          1.9886 0.5000
          2.6117 0.5000
          2.8505 0.5000
          3.0998 0.5000
          3.2451 0.5000
          3.6573 0.5000
          4.5863 0.5000
          4.7695 0.5000
          4.8644 0.5000
          5.5683 0.5000
          6.1406 0.5000
          6.3206 0.5000
          6.5106 0.5000
          7.1464 0.5000
          7.9456 0.5000
          8.3607 0.5000
          8.5682 0.5000
          8.5787 0.5000
          8.6948 0.5000
          10.1510 0.5000
          11.2167 0.5000
          11.3539 0.5000
          11.4594 0.5000
          11.5755 0.5000
          12.9472 0.5000
        }
        "corner_puller"         combo        
        {
          0.5629 0.0106
          0.7633 0.2800
          0.9294 0.2800
          1.1683 0.1600
          1.8848 0.1569
          1.9886 0.2300
          2.6117 0.2300
          2.8505 0.0300
          3.0998 0.0289
          3.2451 0.0289
          3.5667 0.0689
          3.8000 0.7300
          3.9000 0.7500
          4.1031 0.5100
          4.2501 0.5100
          4.4182 0.6900
          4.5863 0.5627
          4.8644 0.5576
          5.1000 0.3300
          5.5683 0.2000
          6.1406 0.2000
          6.3206 0.8300
          6.5106 0.8300
          7.1500 0.7161
          7.9500 0.0943
          8.3607 0.0000
          8.5682 0.0011
          8.5787 0.0011
          8.6948 0.0011
          10.1510 0.0010
          11.2167 0.0010
          11.3539 0.0010
          11.4594 0.0010
          11.5755 0.0010
          12.9472 0.0010
        }
        {
          0.5660 0.3050
          0.7633 0.1800
          0.9294 0.1800
          1.1683 0.1821
          1.8848 0.1860
          1.9886 0.1860
          2.6117 0.1860
          2.8505 0.4800
          3.0998 0.4815
          3.2451 0.4815
          3.6573 0.4815
          3.7985 0.2400
          3.9035 0.2400
          4.1031 0.2400
          4.2501 0.2400
          4.4182 0.2400
          4.5863 0.2339
          4.7695 0.2500
          4.8644 0.2338
          5.5683 0.2379
          6.1406 0.2379
          6.3206 0.2335
          6.5106 0.2335
          7.1464 0.2444
          7.9456 0.4805
          8.3607 0.5000
          8.5682 0.4996
          8.5787 0.4996
          8.6948 0.4996
          10.1510 0.4996
          11.2167 0.4996
          11.3539 0.4996
          11.4594 0.4996
          11.5755 0.4996
          12.9472 0.4996
        }
        "corner_depressor"        
        {
          0.5660 0.0000
          0.7633 0.0000
          0.9294 0.0000
          1.1683 0.0000
          1.8848 0.0000
          1.9886 0.0000
          2.6117 0.0000
          2.8428 0.1000
          3.0998 0.1000
          3.2451 0.1000
          3.6573 0.1000
          3.7985 0.1300
          3.9035 0.1300
          4.1031 0.1300
          4.2501 0.1300
          4.4182 0.1300
          4.5863 0.1330
          4.8644 0.1443
          5.1000 0.6900
          5.5683 0.5100
          6.1333 0.4200
          6.3167 0.3500
          6.5151 0.3500
          7.1464 0.3359
          7.9456 0.0143
          8.3607 0.0000
          8.5682 0.2500
          8.5787 0.2500
          8.6948 0.2500
          10.1510 0.2434
          11.2167 0.2434
          11.3539 0.3400
          11.4594 0.3400
          11.5755 0.4100
          12.9472 0.3994
        }
        "smile"        
        {
          0.0000 0.0000
          0.1688 0.0000
          0.3993 0.0000
          0.5660 0.0000
          0.9294 0.0000
          1.1683 0.0000
          1.8848 0.0000
          1.9886 0.0000
          2.6117 0.0000
          2.8505 0.0000
          3.0998 0.0000
          3.2451 0.0000
          3.6573 0.0000
          4.5863 0.0000
          4.7695 0.0000
          4.8644 0.0000
          5.5683 0.0000
          6.1406 0.0000
          6.3206 0.0000
          6.5106 0.0000
          7.1464 0.0000
          7.9456 0.0000
          8.3607 0.0000
          8.5682 0.0000
          8.5787 0.0000
          8.6948 0.0000
          10.1510 0.0000
          11.2167 0.0000
          11.3539 0.0000
          11.4594 0.0000
          11.5755 0.0000
          12.9472 0.0000
        }
        "left_outer_raiser"        
        {
        }
      }
    }
  }
}

mapname "maps\balcony_large.bsp"
fps 60
snap on
