"Vertexlitgeneric"
{
	// Original shader: VertexLitTexture
	"$basetexture" "models/Weapons/V_ar2/eyelense"
//	"$bumpmap" "models/Weapons/V_ar2/ar2_sidez_normal"
//	"$envmap" "Environment Maps/specular"
	"$envmaptint" "[.1 .9 .1]"
	"$envmap" "env_cubemap"
	"$model" 1
	"$selfillum" 1
}
