// Choreo version 1
actor "Gman"
{
  channel "audio"
  {
    event speak "sonice"
    {
      time 0.693334 4.640364
      ramp 1.00 1.00 1.00
      param "vo\gman_misc\gman_05.wav"
      fixedlength
    }
  }
  channel "Lookat"
  {
    event lookat "look at player"
    {
      time 0.013333 5.293334
      ramp 1.00 1.00 1.00
      param "!player"
    }
  }
  channel "Goto"
  {
  }
  faceposermodel "U:\HL2\hl2\models\gman.mdl"
}

fps 60
snap off
