"UnlitGeneric"
{
	// Original shader: TranslucentSpecularSphericalEnvMapWithMaskedBase
	"$additive" 1
	"$basealphaenvmapmask" 1
	"$basetexture" "models/bullsquid/spit/spitball"
	"$envmap" "models/bullsquid/spit/spitball_mask"
	"$envmapsphere" 1
	"$model" 1
}
